﻿Build started 4/10/2016 3:47:57 PM.
     1>Project "F:\Documents\Visual Studio 2015\Projects\CSCI441_Assignment5\CSCI441_Assignment4\CSCI441_Assignment4.vcxproj" on node 2 (Build target(s)).
     1>C:\Program Files (x86)\MSBuild\Microsoft.Cpp\v4.0\V140\Microsoft.CppBuild.targets(392,5): warning MSB8028: The intermediate directory (Debug\) contains files shared from another project (CSCI441_Assignment4.vcxproj).  This can lead to incorrect clean and rebuild behavior.
     1>ClCompile:
         E:\Windows\Programs\IDE\VS2015\VC\bin\CL.exe /c /I"F:\Documents\Visual Studio 2015\Projects\CSCI441_Assignment5\packages\glm.0.9.7.0\build\native\../..//build/native/include/" /I"F:\Documents\Visual Studio 2015\Projects\CSCI441_Assignment5\packages\nupengl.core.0.1.0.1\build\native\../..//build/native/include/" /ZI /nologo /W3 /WX- /sdl /Od /Oy- /D _MBCS /Gm /EHsc /RTC1 /MDd /GS /fp:precise /Zc:wchar_t /Zc:forScope /Zc:inline /Fo"Debug\\" /Fd"Debug\vc140.pdb" /Gd /TP /analyze- /errorReport:prompt main.cpp
         main.cpp
     1>f:\documents\visual studio 2015\projects\csci441_assignment5\csci441_assignment4\main.cpp(180): warning C4244: '=': conversion from 'double' to 'float', possible loss of data
     1>f:\documents\visual studio 2015\projects\csci441_assignment5\csci441_assignment4\main.cpp(181): warning C4244: '=': conversion from 'double' to 'float', possible loss of data
       Link:
         E:\Windows\Programs\IDE\VS2015\VC\bin\link.exe /ERRORREPORT:PROMPT /OUT:"F:\Documents\Visual Studio 2015\Projects\CSCI441_Assignment5\Debug\CSCI441_Assignment5.exe" /INCREMENTAL /NOLOGO "F:\Documents\Visual Studio 2015\Projects\CSCI441_Assignment5\packages\nupengl.core.0.1.0.1\build\native\../..//build/native/lib/Win32\glew32.lib" "F:\Documents\Visual Studio 2015\Projects\CSCI441_Assignment5\packages\nupengl.core.0.1.0.1\build\native\../..//build/native/lib/Win32\glfw3dll.lib" "F:\Documents\Visual Studio 2015\Projects\CSCI441_Assignment5\packages\nupengl.core.0.1.0.1\build\native\../..//build/native/lib/Win32\freeglut.lib" kernel32.lib user32.lib gdi32.lib winspool.lib comdlg32.lib advapi32.lib shell32.lib ole32.lib oleaut32.lib uuid.lib odbc32.lib odbccp32.lib /MANIFEST /MANIFESTUAC:"level='asInvoker' uiAccess='false'" /manifest:embed /Debug /PDB:"F:\Documents\Visual Studio 2015\Projects\CSCI441_Assignment5\Debug\CSCI441_Assignment5.pdb" /TLBID:1 /DYNAMICBASE /NXCOMPAT /IMPLIB:"F:\Documents\Visual Studio 2015\Projects\CSCI441_Assignment5\Debug\CSCI441_Assignment5.lib" /MACHINE:X86 Debug\main.obj
         Debug\OpenGLShaderLoader.obj
         Debug\PPMImage.obj
         CSCI441_Assignment4.vcxproj -> F:\Documents\Visual Studio 2015\Projects\CSCI441_Assignment5\Debug\CSCI441_Assignment5.exe
     1>Done Building Project "F:\Documents\Visual Studio 2015\Projects\CSCI441_Assignment5\CSCI441_Assignment4\CSCI441_Assignment4.vcxproj" (Build target(s)).

Build succeeded.

Time Elapsed 00:00:01.33
